\relax 
\providecommand\hyper@newdestlabel[2]{}
\providecommand\zref@newlabel[2]{}
\catcode `:\active 
\catcode `;\active 
\catcode `!\active 
\catcode `?\active 
\providecommand\HyperFirstAtBeginDocument{\AtBeginDocument}
\HyperFirstAtBeginDocument{\ifx\hyper@anchor\@undefined
\global\let\oldcontentsline\contentsline
\gdef\contentsline#1#2#3#4{\oldcontentsline{#1}{#2}{#3}}
\global\let\oldnewlabel\newlabel
\gdef\newlabel#1#2{\newlabelxx{#1}#2}
\gdef\newlabelxx#1#2#3#4#5#6{\oldnewlabel{#1}{{#2}{#3}}}
\AtEndDocument{\ifx\hyper@anchor\@undefined
\let\contentsline\oldcontentsline
\let\newlabel\oldnewlabel
\fi}
\fi}
\global\let\hyper@last\relax 
\gdef\HyperFirstAtBeginDocument#1{#1}
\providecommand\HyField@AuxAddToFields[1]{}
\providecommand\HyField@AuxAddToCoFields[2]{}
\select@language{french}
\@writefile{toc}{\select@language{french}}
\@writefile{lof}{\select@language{french}}
\@writefile{lot}{\select@language{french}}
\newlabel{index::doc}{{}{1}{}{section*.2}{}}
\@writefile{toc}{\contentsline {chapter}{\numberline {1}TD1}{1}{chapter.1}}
\@writefile{lof}{\addvspace {10\p@ }}
\@writefile{lot}{\addvspace {10\p@ }}
\newlabel{feuilles_2018/td1:m1103-structures-de-donnees-en-python}{{1}{1}{TD1}{chapter.1}{}}
\newlabel{feuilles_2018/td1:td1}{{1}{1}{TD1}{chapter.1}{}}
\newlabel{feuilles_2018/td1::doc}{{1}{1}{TD1}{chapter.1}{}}
\@writefile{toc}{\contentsline {section}{\numberline {I.}Petites recherches dans le man}{1}{section.1.1}}
\newlabel{exercices/memoire/recherches1::doc}{{I.}{1}{Petites recherches dans le man}{section.1.1}{}}
\newlabel{exercices/memoire/recherches1:petites-recherches-dans-le-man}{{I.}{1}{Petites recherches dans le man}{section.1.1}{}}
\@writefile{toc}{\contentsline {chapter}{\numberline {2}TP1}{3}{chapter.2}}
\@writefile{lof}{\addvspace {10\p@ }}
\@writefile{lot}{\addvspace {10\p@ }}
\newlabel{feuilles_2018/tp1::doc}{{2}{3}{TP1}{chapter.2}{}}
\newlabel{feuilles_2018/tp1:tp1}{{2}{3}{TP1}{chapter.2}{}}
\@writefile{toc}{\contentsline {section}{\numberline {I.}Encore des recherches dans le man}{3}{section.2.1}}
\newlabel{exercices/memoire/recherches2::doc}{{I.}{3}{Encore des recherches dans le man}{section.2.1}{}}
\newlabel{exercices/memoire/recherches2:encore-des-recherches-dans-le-man}{{I.}{3}{Encore des recherches dans le man}{section.2.1}{}}
\@writefile{toc}{\contentsline {chapter}{\numberline {3}Mot de Fibonacci}{5}{chapter.3}}
\@writefile{lof}{\addvspace {10\p@ }}
\@writefile{lot}{\addvspace {10\p@ }}
\newlabel{exercices/fibonacci/motFibbonacci::doc}{{3}{5}{Mot de Fibonacci}{chapter.3}{}}
\newlabel{exercices/fibonacci/motFibbonacci:mot-de-fibonacci}{{3}{5}{Mot de Fibonacci}{chapter.3}{}}
\@writefile{lot}{\contentsline {table}{\numberline {3.1}{\ignorespaces Tableau1}}{6}{table.3.1}}
\newlabel{exercices/fibonacci/motFibbonacci:id1}{{3.1}{6}{Mot de Fibonacci}{table.3.1}{}}
\@writefile{toc}{\contentsline {chapter}{\numberline {4}Indices and tables}{9}{chapter.4}}
\@writefile{lof}{\addvspace {10\p@ }}
\@writefile{lot}{\addvspace {10\p@ }}
\newlabel{index:indices-and-tables}{{4}{9}{Indices and tables}{chapter.4}{}}
