# Fdb version 3
["makeindex SDD.idx"] 1541686748 "SDD.idx" "SDD.ind" "SDD" 1541751828
  "SDD.idx" 1541751758 0 d41d8cd98f00b204e9800998ecf8427e ""
  (generated)
  "SDD.ilg"
  "SDD.ind"
["pdflatex"] 1541751827 "SDD.tex" "SDD.pdf" "SDD" 1541751828
  "/etc/texmf/web2c/texmf.cnf" 1512407347 475 c0e671620eb5563b2130f56340a5fde8 ""
  "/usr/share/texlive/texmf-dist/fonts/enc/dvips/base/8r.enc" 1480098666 4850 80dc9bab7f31fb78a000ccfed0e27cab ""
  "/usr/share/texlive/texmf-dist/fonts/map/fontname/texfonts.map" 1480098670 3287 e6b82fe08f5336d4d5ebc73fb1152e87 ""
  "/usr/share/texlive/texmf-dist/fonts/tfm/adobe/courier/pcrb8r.tfm" 1480098688 1292 3059476c50a24578715759f22652f3d0 ""
  "/usr/share/texlive/texmf-dist/fonts/tfm/adobe/courier/pcrb8t.tfm" 1480098688 1384 87406e4336af44af883a035f17f319d9 ""
  "/usr/share/texlive/texmf-dist/fonts/tfm/adobe/courier/pcrr8r.tfm" 1480098688 1292 bd42be2f344128bff6d35d98474adfe3 ""
  "/usr/share/texlive/texmf-dist/fonts/tfm/adobe/courier/pcrr8t.tfm" 1480098688 1384 4632f5e54900a7dadbb83f555bc61e56 ""
  "/usr/share/texlive/texmf-dist/fonts/tfm/adobe/helvetic/phvb8r.tfm" 1480098688 4484 b828043cbd581d289d955903c1339981 ""
  "/usr/share/texlive/texmf-dist/fonts/tfm/adobe/helvetic/phvb8t.tfm" 1480098688 6628 34c39492c0adc454c1c199922bba8363 ""
  "/usr/share/texlive/texmf-dist/fonts/tfm/adobe/helvetic/phvbo8r.tfm" 1480098688 4736 423eba67d4e9420ec9df4a8def143b08 ""
  "/usr/share/texlive/texmf-dist/fonts/tfm/adobe/helvetic/phvbo8t.tfm" 1480098688 6880 fe6c7967f27585f6fa9876f3af14edd2 ""
  "/usr/share/texlive/texmf-dist/fonts/tfm/adobe/helvetic/phvr8r.tfm" 1480098688 4712 9ef4d7d106579d4b136e1529e1a4533c ""
  "/usr/share/texlive/texmf-dist/fonts/tfm/adobe/helvetic/phvr8t.tfm" 1480098688 7040 b2bd27e2bfe6f6948cbc3239cae7444f ""
  "/usr/share/texlive/texmf-dist/fonts/tfm/adobe/times/ptmb8r.tfm" 1480098689 4524 6bce29db5bc272ba5f332261583fee9c ""
  "/usr/share/texlive/texmf-dist/fonts/tfm/adobe/times/ptmb8t.tfm" 1480098689 6880 f19b8995b61c334d78fc734065f6b4d4 ""
  "/usr/share/texlive/texmf-dist/fonts/tfm/adobe/times/ptmr8r.tfm" 1480098689 4408 25b74d011a4c66b7f212c0cc3c90061b ""
  "/usr/share/texlive/texmf-dist/fonts/tfm/adobe/times/ptmr8t.tfm" 1480098689 6672 e3ab9e37e925f3045c9005e6d1473d56 ""
  "/usr/share/texlive/texmf-dist/fonts/tfm/adobe/times/ptmri8r.tfm" 1480098689 4640 532ca3305aad10cc01d769f3f91f1029 ""
  "/usr/share/texlive/texmf-dist/fonts/tfm/adobe/times/ptmri8t.tfm" 1480098689 6944 94c55ad86e6ea2826f78ba2240d50df9 ""
  "/usr/share/texlive/texmf-dist/fonts/tfm/jknappen/ec/ecrm1000.tfm" 1480098696 3584 adb004a0c8e7c46ee66cad73671f37b4 ""
  "/usr/share/texlive/texmf-dist/fonts/tfm/public/amsfonts/cmextra/cmex7.tfm" 1480098698 1004 54797486969f23fa377b128694d548df ""
  "/usr/share/texlive/texmf-dist/fonts/tfm/public/amsfonts/symbols/msam10.tfm" 1480098698 916 f87d7c45f9c908e672703b83b72241a3 ""
  "/usr/share/texlive/texmf-dist/fonts/tfm/public/amsfonts/symbols/msam5.tfm" 1480098698 924 9904cf1d39e9767e7a3622f2a125a565 ""
  "/usr/share/texlive/texmf-dist/fonts/tfm/public/amsfonts/symbols/msam7.tfm" 1480098698 928 2dc8d444221b7a635bb58038579b861a ""
  "/usr/share/texlive/texmf-dist/fonts/tfm/public/amsfonts/symbols/msbm10.tfm" 1480098698 908 2921f8a10601f252058503cc6570e581 ""
  "/usr/share/texlive/texmf-dist/fonts/tfm/public/amsfonts/symbols/msbm5.tfm" 1480098698 940 75ac932a52f80982a9f8ea75d03a34cf ""
  "/usr/share/texlive/texmf-dist/fonts/tfm/public/amsfonts/symbols/msbm7.tfm" 1480098698 940 228d6584342e91276bf566bcf9716b83 ""
  "/usr/share/texlive/texmf-dist/fonts/tfm/public/cm/cmex10.tfm" 1480098701 992 662f679a0b3d2d53c1b94050fdaa3f50 ""
  "/usr/share/texlive/texmf-dist/fonts/tfm/public/cm/cmmi12.tfm" 1480098701 1524 4414a8315f39513458b80dfc63bff03a ""
  "/usr/share/texlive/texmf-dist/fonts/tfm/public/cm/cmr10.tfm" 1480098701 1296 45809c5a464d5f32c8f98ba97c1bb47f ""
  "/usr/share/texlive/texmf-dist/fonts/tfm/public/cm/cmr12.tfm" 1480098701 1288 655e228510b4c2a1abe905c368440826 ""
  "/usr/share/texlive/texmf-dist/fonts/tfm/public/cm/cmr17.tfm" 1480098701 1292 296a67155bdbfc32aa9c636f21e91433 ""
  "/usr/share/texlive/texmf-dist/fonts/tfm/public/cm/cmsy10.tfm" 1480098701 1124 6c73e740cf17375f03eec0ee63599741 ""
  "/usr/share/texlive/texmf-dist/fonts/type1/urw/courier/ucrb8a.pfb" 1480098746 50493 4ed1f7e9eba8f1f3e1ec25195460190d ""
  "/usr/share/texlive/texmf-dist/fonts/type1/urw/courier/ucrr8a.pfb" 1480098746 45758 19968a0990191524e34e1994d4a31cb6 ""
  "/usr/share/texlive/texmf-dist/fonts/type1/urw/helvetic/uhvb8a.pfb" 1480098746 35941 f27169cc74234d5bd5e4cca5abafaabb ""
  "/usr/share/texlive/texmf-dist/fonts/type1/urw/helvetic/uhvbo8a.pfb" 1480098746 39013 b244066151b1e3e718f9b8e88a5ff23b ""
  "/usr/share/texlive/texmf-dist/fonts/type1/urw/helvetic/uhvr8a.pfb" 1480098746 44648 23115b2a545ebfe2c526c3ca99db8b95 ""
  "/usr/share/texlive/texmf-dist/fonts/type1/urw/times/utmb8a.pfb" 1480098746 44729 811d6c62865936705a31c797a1d5dada ""
  "/usr/share/texlive/texmf-dist/fonts/type1/urw/times/utmr8a.pfb" 1480098746 46026 6dab18b61c907687b520c72847215a68 ""
  "/usr/share/texlive/texmf-dist/fonts/type1/urw/times/utmri8a.pfb" 1480098746 45458 a3faba884469519614ca56ba5f6b1de1 ""
  "/usr/share/texlive/texmf-dist/fonts/vf/adobe/courier/pcrb8t.vf" 1480098757 2184 5d20c8b00cd914e50251116c274e2d0b ""
  "/usr/share/texlive/texmf-dist/fonts/vf/adobe/courier/pcrr8t.vf" 1480098757 2184 8475af1b9cfa983db5f46f5ed4b8f9f7 ""
  "/usr/share/texlive/texmf-dist/fonts/vf/adobe/helvetic/phvb8t.vf" 1480098757 2340 0efed6a948c3c37d870e4e7ddb85c7c3 ""
  "/usr/share/texlive/texmf-dist/fonts/vf/adobe/helvetic/phvbo8t.vf" 1480098757 2344 88834f8322177295b0266ecc4b0754c3 ""
  "/usr/share/texlive/texmf-dist/fonts/vf/adobe/helvetic/phvr8t.vf" 1480098757 2344 44ff28c9ef2fc97180cd884f900fee71 ""
  "/usr/share/texlive/texmf-dist/fonts/vf/adobe/times/ptmb8t.vf" 1480098758 2340 df9c920cc5688ebbf16a93f45ce7bdd3 ""
  "/usr/share/texlive/texmf-dist/fonts/vf/adobe/times/ptmr8t.vf" 1480098758 2348 91706c542228501c410c266421fbe30c ""
  "/usr/share/texlive/texmf-dist/fonts/vf/adobe/times/ptmri8t.vf" 1480098758 2328 6cd7df782b09b29cfc4d93e55b6b9a59 ""
  "/usr/share/texlive/texmf-dist/tex/context/base/mkii/supp-pdf.mkii" 1480098806 71627 94eb9990bed73c364d7f53f960cc8c5b ""
  "/usr/share/texlive/texmf-dist/tex/generic/babel-french/french.ldf" 1499987170 62324 1cd18bf6f4d637d1c877463ee7fd93c0 ""
  "/usr/share/texlive/texmf-dist/tex/generic/babel-french/frenchb.ldf" 1499987170 2991 b0683a2797d36f617de050bfed43aeea ""
  "/usr/share/texlive/texmf-dist/tex/generic/babel/babel.def" 1498771725 60627 65b1d37729beaffee593c370ecc06f67 ""
  "/usr/share/texlive/texmf-dist/tex/generic/babel/babel.sty" 1498771725 14313 17461b21efc49ba90378dd30e97c1fca ""
  "/usr/share/texlive/texmf-dist/tex/generic/babel/switch.def" 1498771725 12650 fb4c49ceb13037455c02ab8dd235f9ec ""
  "/usr/share/texlive/texmf-dist/tex/generic/ifxetex/ifxetex.sty" 1480098815 1458 43ab4710dc82f3edeabecd0d099626b2 ""
  "/usr/share/texlive/texmf-dist/tex/generic/oberdiek/etexcmds.sty" 1480098815 7612 729a8cc22a1ee0029997c7f74717ae05 ""
  "/usr/share/texlive/texmf-dist/tex/generic/oberdiek/gettitlestring.sty" 1480098815 8237 3b62ef1f7e2c23a328c814b3893bc11f ""
  "/usr/share/texlive/texmf-dist/tex/generic/oberdiek/hobsub-generic.sty" 1490564930 185082 1fb09d7d24834377f95006300bc91fd2 ""
  "/usr/share/texlive/texmf-dist/tex/generic/oberdiek/hobsub-hyperref.sty" 1480098815 70864 bcd5b216757bd619ae692a151d90085d ""
  "/usr/share/texlive/texmf-dist/tex/generic/oberdiek/ifluatex.sty" 1480098815 7324 2310d1247db0114eb4726807c8837a0e ""
  "/usr/share/texlive/texmf-dist/tex/generic/oberdiek/ifpdf.sty" 1490564930 1251 d170e11a3246c3392bc7f59595af42cb ""
  "/usr/share/texlive/texmf-dist/tex/generic/oberdiek/ifvtex.sty" 1480098815 6797 90b7f83b0ad46826bc16058b1e3d48df ""
  "/usr/share/texlive/texmf-dist/tex/generic/oberdiek/infwarerr.sty" 1480098815 8253 473e0e41f9adadb1977e8631b8f72ea6 ""
  "/usr/share/texlive/texmf-dist/tex/generic/oberdiek/kvsetkeys.sty" 1480098815 14040 ac8866aac45982ac84021584b0abb252 ""
  "/usr/share/texlive/texmf-dist/tex/generic/oberdiek/ltxcmds.sty" 1480098815 18425 5b3c0c59d76fac78978b5558e83c1f36 ""
  "/usr/share/texlive/texmf-dist/tex/generic/pgf/basiclayer/pgfcore.code.tex" 1480098816 1006 b103be0bfc8c1682ff1fa9760697a329 ""
  "/usr/share/texlive/texmf-dist/tex/generic/pgf/basiclayer/pgfcorearrows.code.tex" 1480098816 43226 167a99346bfe2676e3efcdde2d81fe45 ""
  "/usr/share/texlive/texmf-dist/tex/generic/pgf/basiclayer/pgfcoreexternal.code.tex" 1480098816 19302 4f089dc590e71f7331e6d5b5ea85273b ""
  "/usr/share/texlive/texmf-dist/tex/generic/pgf/basiclayer/pgfcoregraphicstate.code.tex" 1480098816 6068 edae1e768a7d8d8f0f00e953d2b0153e ""
  "/usr/share/texlive/texmf-dist/tex/generic/pgf/basiclayer/pgfcoreimage.code.tex" 1480098816 7041 a891ad72049e17c4e366c40ca37b0ccb ""
  "/usr/share/texlive/texmf-dist/tex/generic/pgf/basiclayer/pgfcorelayers.code.tex" 1480098816 4625 40c07e9f6f2f7c674704b3f2055560ce ""
  "/usr/share/texlive/texmf-dist/tex/generic/pgf/basiclayer/pgfcoreobjects.code.tex" 1480098816 2631 7eefa6cdbefd8d4e2bad7262cf1094cd ""
  "/usr/share/texlive/texmf-dist/tex/generic/pgf/basiclayer/pgfcorepathconstruct.code.tex" 1480098816 43477 81143b33d9ebafdeead07ede13372427 ""
  "/usr/share/texlive/texmf-dist/tex/generic/pgf/basiclayer/pgfcorepathprocessing.code.tex" 1480098816 17436 8d99d4113be311daf23deff86991ee7d ""
  "/usr/share/texlive/texmf-dist/tex/generic/pgf/basiclayer/pgfcorepathusage.code.tex" 1480098816 20772 c57e34db4aa7b1da013169d04b743eac ""
  "/usr/share/texlive/texmf-dist/tex/generic/pgf/basiclayer/pgfcorepatterns.code.tex" 1480098816 9641 711f0edc22c180a5caf168b6e8970057 ""
  "/usr/share/texlive/texmf-dist/tex/generic/pgf/basiclayer/pgfcorepoints.code.tex" 1480098816 34516 658a71478d21df554bce9d9cd436203a ""
  "/usr/share/texlive/texmf-dist/tex/generic/pgf/basiclayer/pgfcorequick.code.tex" 1480098816 3052 e5672c657232fd63b0a9853b0746297c ""
  "/usr/share/texlive/texmf-dist/tex/generic/pgf/basiclayer/pgfcorescopes.code.tex" 1480098816 16669 4ec6e40088fc6de6334b443fe2dc59f0 ""
  "/usr/share/texlive/texmf-dist/tex/generic/pgf/basiclayer/pgfcoreshade.code.tex" 1480098816 21541 4cd19f8ff7dd74d5aa7d803a6397af84 ""
  "/usr/share/texlive/texmf-dist/tex/generic/pgf/basiclayer/pgfcoretransformations.code.tex" 1480098816 19998 d77fef95c7369827753d17fd11be19c4 ""
  "/usr/share/texlive/texmf-dist/tex/generic/pgf/basiclayer/pgfcoretransparency.code.tex" 1480098816 8943 2e2495b057f8f0035b5568394d489963 ""
  "/usr/share/texlive/texmf-dist/tex/generic/pgf/frontendlayer/tikz/libraries/tikzlibrarydecorations.code.tex" 1480098816 5484 4bb4a5cbbd05d6f17a261b59dbd014f1 ""
  "/usr/share/texlive/texmf-dist/tex/generic/pgf/frontendlayer/tikz/libraries/tikzlibrarydecorations.pathmorphing.code.tex" 1480098816 319 d246cee5ce1aaf2afe558acd4731d5ba ""
  "/usr/share/texlive/texmf-dist/tex/generic/pgf/frontendlayer/tikz/libraries/tikzlibraryfadings.code.tex" 1480098816 1298 83d7449064b0f0f089f1898a244b6d16 ""
  "/usr/share/texlive/texmf-dist/tex/generic/pgf/frontendlayer/tikz/libraries/tikzlibraryshadows.code.tex" 1480098816 3001 d54bab2f783098ed890fabbeb437b04f ""
  "/usr/share/texlive/texmf-dist/tex/generic/pgf/frontendlayer/tikz/libraries/tikzlibrarytopaths.code.tex" 1480098816 11599 d694704a88e2f9007c996d3a6a4d629c ""
  "/usr/share/texlive/texmf-dist/tex/generic/pgf/frontendlayer/tikz/tikz.code.tex" 1480098816 176652 1c2926908e2b356d454795c35385d580 ""
  "/usr/share/texlive/texmf-dist/tex/generic/pgf/libraries/decorations/pgflibrarydecorations.pathmorphing.code.tex" 1480098816 8854 7be3c3b9eb0de90885a881085ce8e118 ""
  "/usr/share/texlive/texmf-dist/tex/generic/pgf/libraries/pgflibraryfadings.code.tex" 1480098816 2647 defb4a59c2a1d36127a1ac6eebb4a5c1 ""
  "/usr/share/texlive/texmf-dist/tex/generic/pgf/libraries/pgflibraryplothandlers.code.tex" 1480098816 32969 dbcfd5a7de6a0f7255c333ef60287d59 ""
  "/usr/share/texlive/texmf-dist/tex/generic/pgf/math/pgfmath.code.tex" 1480098816 454 9e9e7c99f4da4f41698be21eaef4938e ""
  "/usr/share/texlive/texmf-dist/tex/generic/pgf/math/pgfmathcalc.code.tex" 1480098816 13416 940ea6971d7a65dc440d3479939c66ae ""
  "/usr/share/texlive/texmf-dist/tex/generic/pgf/math/pgfmathfloat.code.tex" 1480098816 94097 62ac62cda46eb715560dc27f9ed6e8b1 ""
  "/usr/share/texlive/texmf-dist/tex/generic/pgf/math/pgfmathfunctions.base.code.tex" 1480098816 9375 5adc70f722abd29fc250d59e0694b548 ""
  "/usr/share/texlive/texmf-dist/tex/generic/pgf/math/pgfmathfunctions.basic.code.tex" 1480098816 22069 7c21c42b15718ce922f36235be360490 ""
  "/usr/share/texlive/texmf-dist/tex/generic/pgf/math/pgfmathfunctions.code.tex" 1480098816 8210 a7be5b52ef3d2c087b7dc3d52898b67e ""
  "/usr/share/texlive/texmf-dist/tex/generic/pgf/math/pgfmathfunctions.comparison.code.tex" 1480098816 3534 c7f28fbac13616513e513efe93b8569b ""
  "/usr/share/texlive/texmf-dist/tex/generic/pgf/math/pgfmathfunctions.integerarithmetics.code.tex" 1480098816 3167 7c9394e79aac27db96a92f9b2792b858 ""
  "/usr/share/texlive/texmf-dist/tex/generic/pgf/math/pgfmathfunctions.misc.code.tex" 1480098816 9289 261407875b9dbb0194691c3eb893610f ""
  "/usr/share/texlive/texmf-dist/tex/generic/pgf/math/pgfmathfunctions.random.code.tex" 1480098816 7078 946ddf4a7e57219b6afdbad98eb6731b ""
  "/usr/share/texlive/texmf-dist/tex/generic/pgf/math/pgfmathfunctions.round.code.tex" 1480098816 2688 139c6abc86761a6190c2f4bef5d752be ""
  "/usr/share/texlive/texmf-dist/tex/generic/pgf/math/pgfmathfunctions.trigonometric.code.tex" 1480098816 92284 dcf023dbaa84e6c50e11c2f79fe8cfa6 ""
  "/usr/share/texlive/texmf-dist/tex/generic/pgf/math/pgfmathparser.code.tex" 1480098816 35430 046e15fbb65e74d8f0e7945f99741fdb ""
  "/usr/share/texlive/texmf-dist/tex/generic/pgf/math/pgfmathutil.code.tex" 1480098816 7099 f44d505bae6c7c2b933cdd63441db4b9 ""
  "/usr/share/texlive/texmf-dist/tex/generic/pgf/modules/pgfmoduledecorations.code.tex" 1480098816 71902 658cc1e13f73daec4225b8fc1c27600b ""
  "/usr/share/texlive/texmf-dist/tex/generic/pgf/modules/pgfmodulematrix.code.tex" 1480098816 20934 2328bd2e04520e1ab077ac4ee13b8935 ""
  "/usr/share/texlive/texmf-dist/tex/generic/pgf/modules/pgfmoduleplot.code.tex" 1480098816 16203 83cbe1220e389eeee283a6168f9a567b ""
  "/usr/share/texlive/texmf-dist/tex/generic/pgf/modules/pgfmoduleshapes.code.tex" 1480098816 42906 d54376d96df1a2ae2d33fb722236d8e9 ""
  "/usr/share/texlive/texmf-dist/tex/generic/pgf/systemlayer/pgf.cfg" 1480098816 978 15af626ebd3d4d790aac19170dac04f2 ""
  "/usr/share/texlive/texmf-dist/tex/generic/pgf/systemlayer/pgfsys-common-pdf.def" 1480098816 5437 d91f93ed61ecdc57e119849b2d784a0b ""
  "/usr/share/texlive/texmf-dist/tex/generic/pgf/systemlayer/pgfsys-pdftex.def" 1480098816 13507 809d848d9262638e1b1705a68a73c566 ""
  "/usr/share/texlive/texmf-dist/tex/generic/pgf/systemlayer/pgfsys.code.tex" 1480098816 35113 2ccc50c1c9573e4bac9230d030f9c67c ""
  "/usr/share/texlive/texmf-dist/tex/generic/pgf/systemlayer/pgfsysprotocol.code.tex" 1480098816 1983 b5994ebbcee17f1ba3d29bb1bd696fcf ""
  "/usr/share/texlive/texmf-dist/tex/generic/pgf/systemlayer/pgfsyssoftpath.code.tex" 1480098816 7881 d459d6057e13d10ce7a227ae44b7295e ""
  "/usr/share/texlive/texmf-dist/tex/generic/pgf/utilities/pgffor.code.tex" 1480098816 22211 d696ef78c12269178882d218b2cf191d ""
  "/usr/share/texlive/texmf-dist/tex/generic/pgf/utilities/pgfkeys.code.tex" 1480098816 36194 e194ef4e0b396b531a3891feb4b1cc22 ""
  "/usr/share/texlive/texmf-dist/tex/generic/pgf/utilities/pgfkeysfiltered.code.tex" 1480098816 33377 af391d6ad1bfcbe2278e191f48e43ba8 ""
  "/usr/share/texlive/texmf-dist/tex/generic/pgf/utilities/pgfrcs.code.tex" 1480098816 2536 a3b0529d815a2759ba157b56610a6377 ""
  "/usr/share/texlive/texmf-dist/tex/generic/pgf/utilities/pgfutil-common-lists.tex" 1480098816 6833 114eda2cf1d348e0e7e477a1a4dc1941 ""
  "/usr/share/texlive/texmf-dist/tex/generic/pgf/utilities/pgfutil-common.tex" 1480098816 16501 ab0135765e27b6b8dae047831fe84818 ""
  "/usr/share/texlive/texmf-dist/tex/generic/pgf/utilities/pgfutil-latex.def" 1480098816 5544 294baac9629ba59f675b1f2027ad7136 ""
  "/usr/share/texlive/texmf-dist/tex/generic/unicode-data/CaseFolding.txt" 1498600549 78161 7893b6e005c5a521319a0d12062ae122 ""
  "/usr/share/texlive/texmf-dist/tex/generic/unicode-data/SpecialCasing.txt" 1498600549 16830 e49d6f1fe536f43762ba1ecfe9e53e12 ""
  "/usr/share/texlive/texmf-dist/tex/generic/unicode-data/UnicodeData.txt" 1498600549 1735010 2a52f30695dcc821f0f224650552beaf ""
  "/usr/share/texlive/texmf-dist/tex/generic/xkeyval/xkeyval.tex" 1480098819 19231 26434a5656c684f5ffb1f26f98006baa ""
  "/usr/share/texlive/texmf-dist/tex/generic/xkeyval/xkvutils.tex" 1480098819 7677 6f5ce7c1124cad7ec57d05b2562bd8fe ""
  "/usr/share/texlive/texmf-dist/tex/latex/amsfonts/amsfonts.sty" 1480098820 5949 3f3fd50a8cc94c3d4cbf4fc66cd3df1c ""
  "/usr/share/texlive/texmf-dist/tex/latex/amsfonts/amssymb.sty" 1480098820 13829 94730e64147574077f8ecfea9bb69af4 ""
  "/usr/share/texlive/texmf-dist/tex/latex/amsfonts/umsa.fd" 1480098820 961 6518c6525a34feb5e8250ffa91731cff ""
  "/usr/share/texlive/texmf-dist/tex/latex/amsfonts/umsb.fd" 1480098820 961 d02606146ba5601b5645f987c92e6193 ""
  "/usr/share/texlive/texmf-dist/tex/latex/amsmath/amsbsy.sty" 1480098820 2210 5c54ab129b848a5071554186d0168766 ""
  "/usr/share/texlive/texmf-dist/tex/latex/amsmath/amsgen.sty" 1480098820 4160 c115536cf8d4ff25aa8c1c9bc4ecb79a ""
  "/usr/share/texlive/texmf-dist/tex/latex/amsmath/amsmath.sty" 1485129665 84329 81aa65c5042562f79cb421feff9b8bdc ""
  "/usr/share/texlive/texmf-dist/tex/latex/amsmath/amsopn.sty" 1480098820 4115 318a66090112f3aa3f415aeb6fe8540f ""
  "/usr/share/texlive/texmf-dist/tex/latex/amsmath/amstext.sty" 1480098820 2431 fe3078ec12fc30287f568596f8e0b948 ""
  "/usr/share/texlive/texmf-dist/tex/latex/base/alltt.sty" 1480098821 3140 977eaf314c97ac67b8675753fb15f67f ""
  "/usr/share/texlive/texmf-dist/tex/latex/base/fontenc.sty" 1492297155 4571 13977df0eda144b93597fc709035ad1f ""
  "/usr/share/texlive/texmf-dist/tex/latex/base/ifthen.sty" 1480098821 5159 a08c9bbd48fc492f15b22e458bef961f ""
  "/usr/share/texlive/texmf-dist/tex/latex/base/inputenc.sty" 1480098821 4732 d63eda807ac82cca2ca8488efd31a966 ""
  "/usr/share/texlive/texmf-dist/tex/latex/base/makeidx.sty" 1480098821 1940 c559b92ca91f1b2a0e60d836d4973f41 ""
  "/usr/share/texlive/texmf-dist/tex/latex/base/omsenc.dfu" 1487721667 2004 ac51aeac484f08c01026120d62677eca ""
  "/usr/share/texlive/texmf-dist/tex/latex/base/ot1enc.dfu" 1487721667 3181 1cb3e9ad01f4a01127b2ffd821bfeec7 ""
  "/usr/share/texlive/texmf-dist/tex/latex/base/report.cls" 1480098821 22880 e7be6f7dd8c05d5108bf3a7d8cabe59a ""
  "/usr/share/texlive/texmf-dist/tex/latex/base/size10.clo" 1480098821 8292 e897c12e1e886ce77fe26afc5d470886 ""
  "/usr/share/texlive/texmf-dist/tex/latex/base/t1enc.def" 1492297155 10006 a90ba4035cf778f32f424e297d92e235 ""
  "/usr/share/texlive/texmf-dist/tex/latex/base/t1enc.dfu" 1487721667 11255 9d97362866549d3d3c994b5f28d1b9b5 ""
  "/usr/share/texlive/texmf-dist/tex/latex/base/textcomp.sty" 1492297155 16154 f2c73e20ca771d534a8516c62c6b0eae ""
  "/usr/share/texlive/texmf-dist/tex/latex/base/ts1cmr.fd" 1480098821 2217 d274654bda1292013bdf48d5f720a495 ""
  "/usr/share/texlive/texmf-dist/tex/latex/base/ts1enc.def" 1480098821 7767 aa88823823f5e767d79ea1166ab1ae74 ""
  "/usr/share/texlive/texmf-dist/tex/latex/base/ts1enc.dfu" 1487721667 4919 76510afd60e8282294f944c2f9f5103b ""
  "/usr/share/texlive/texmf-dist/tex/latex/base/utf8.def" 1487721667 7784 325a2a09984cb5c4ff230f9867145ad3 ""
  "/usr/share/texlive/texmf-dist/tex/latex/bclogo/bclogo.sty" 1480098821 22518 1f6a4ecab39ccbb8d89292d57c25d0b8 ""
  "/usr/share/texlive/texmf-dist/tex/latex/capt-of/capt-of.sty" 1480098823 1311 063f8536a047a2d9cb1803321f793f37 ""
  "/usr/share/texlive/texmf-dist/tex/latex/carlisle/scalefnt.sty" 1480098823 1360 df2086bf924b14b72d6121fe9502fcdb ""
  "/usr/share/texlive/texmf-dist/tex/latex/cmap/cmap.sty" 1480098825 2883 427a7f7cb58418a0394dbd85c80668f6 ""
  "/usr/share/texlive/texmf-dist/tex/latex/cmap/ot1.cmap" 1480098825 1207 4e0d96772f0d338847cbfb4eca683c81 ""
  "/usr/share/texlive/texmf-dist/tex/latex/cmap/t1.cmap" 1480098825 1938 beaa4a8467aa0074076e0e19f2992e29 ""
  "/usr/share/texlive/texmf-dist/tex/latex/etoolbox/etoolbox.sty" 1483484472 42324 d951db30d0cb2b811f084fa3f92aec16 ""
  "/usr/share/texlive/texmf-dist/tex/latex/fancyhdr/fancyhdr.sty" 1498861448 10663 d7fcc0dc4f35e8998b8cfeef8407d37d ""
  "/usr/share/texlive/texmf-dist/tex/latex/fancyvrb/fancyvrb.sty" 1480098827 45360 a0833d32f1b541964596b02870342d5a ""
  "/usr/share/texlive/texmf-dist/tex/latex/float/float.sty" 1480098828 6749 16d2656a1984957e674b149555f1ea1d ""
  "/usr/share/texlive/texmf-dist/tex/latex/fncychap/fncychap.sty" 1480098828 19488 fdd52eb173b3197d748e1ec25acb042f ""
  "/usr/share/texlive/texmf-dist/tex/latex/framed/framed.sty" 1480098829 22449 7ec15c16d0d66790f28e90343c5434a3 ""
  "/usr/share/texlive/texmf-dist/tex/latex/geometry/geometry.sty" 1480098829 40502 e003406220954b0716679d7928aedd8a ""
  "/usr/share/texlive/texmf-dist/tex/latex/graphics-cfg/color.cfg" 1480098830 1213 620bba36b25224fa9b7e1ccb4ecb76fd ""
  "/usr/share/texlive/texmf-dist/tex/latex/graphics-cfg/graphics.cfg" 1480098830 1224 978390e9c2234eab29404bc21b268d1e ""
  "/usr/share/texlive/texmf-dist/tex/latex/graphics-def/pdftex.def" 1498427493 16511 5d26b5e9dfb345f4c794a3d58bda444e ""
  "/usr/share/texlive/texmf-dist/tex/latex/graphics/graphics.sty" 1498427532 15275 7d676729b1bedd3e7f3c6717affb366c ""
  "/usr/share/texlive/texmf-dist/tex/latex/graphics/graphicx.sty" 1498427532 9066 649f2ccf62888e3d8c3e57256b70b8e1 ""
  "/usr/share/texlive/texmf-dist/tex/latex/graphics/keyval.sty" 1480098830 2594 d18d5e19aa8239cf867fa670c556d2e9 ""
  "/usr/share/texlive/texmf-dist/tex/latex/graphics/trig.sty" 1480098830 3980 0a268fbfda01e381fa95821ab13b6aee ""
  "/usr/share/texlive/texmf-dist/tex/latex/hyperref/hpdftex.def" 1489964469 51983 9a4f683a2a7b213874a28bc4008b84d9 ""
  "/usr/share/texlive/texmf-dist/tex/latex/hyperref/hyperref.sty" 1489964469 233808 b63d91422c362e723c6e8b1a2fffcba5 ""
  "/usr/share/texlive/texmf-dist/tex/latex/hyperref/nameref.sty" 1480098831 12949 81e4e808884a8f0e276b69410e234656 ""
  "/usr/share/texlive/texmf-dist/tex/latex/hyperref/pd1enc.def" 1489964469 14098 7631f11156e5f9cd76010dbd230aa268 ""
  "/usr/share/texlive/texmf-dist/tex/latex/hyperref/puenc.def" 1489964469 122411 7c1f7e015c7fc4bfb7dc052d55755ce3 ""
  "/usr/share/texlive/texmf-dist/tex/latex/l3kernel/expl3-code.tex" 1500674573 833222 92fa4359d309839fcd25bbcff3c76629 ""
  "/usr/share/texlive/texmf-dist/tex/latex/l3kernel/expl3.sty" 1500674573 10066 81310c87328a0723256d5331915c1b5a ""
  "/usr/share/texlive/texmf-dist/tex/latex/l3kernel/l3pdfmode.def" 1500674573 14361 983d5b483572976c2a844d5aa1260218 ""
  "/usr/share/texlive/texmf-dist/tex/latex/l3packages/xparse/xparse.sty" 1500674573 77101 a50d2bcd9e44b2458072e4b10910604e ""
  "/usr/share/texlive/texmf-dist/tex/latex/latexconfig/epstopdf-sys.cfg" 1480098833 678 4792914a8f45be57bb98413425e4c7af ""
  "/usr/share/texlive/texmf-dist/tex/latex/latexconfig/hyperref.cfg" 1480098833 235 6031e5765137be07eed51a510b2b8fb7 ""
  "/usr/share/texlive/texmf-dist/tex/latex/mdframed/md-frame-1.mdf" 1480098833 24632 760c4c81e779e6958bac43417deb524f ""
  "/usr/share/texlive/texmf-dist/tex/latex/mdframed/mdframed.sty" 1480098833 53487 3e997243f47cb3ba8b4c7b8df9c82989 ""
  "/usr/share/texlive/texmf-dist/tex/latex/mmap/oml.cmap" 1480098835 1866 c1c12138091b4a8edd4a24a940e6f792 ""
  "/usr/share/texlive/texmf-dist/tex/latex/mmap/oms.cmap" 1480098835 2370 3b1f71b14b974f07cef532db09ae9ee0 ""
  "/usr/share/texlive/texmf-dist/tex/latex/mmap/omx.cmap" 1480098835 3001 252c8ca42b06a22cb1a11c0e47790c6e ""
  "/usr/share/texlive/texmf-dist/tex/latex/ms/everyshi.sty" 1480098835 3878 6aa7c08ff2621006e0603349e40a30a8 ""
  "/usr/share/texlive/texmf-dist/tex/latex/needspace/needspace.sty" 1480098835 852 0e34dbb72efc69fa07602405ad95585e ""
  "/usr/share/texlive/texmf-dist/tex/latex/oberdiek/auxhook.sty" 1480098836 3834 4363110eb0ef1eb2b71c8fcbcdb6c357 ""
  "/usr/share/texlive/texmf-dist/tex/latex/oberdiek/epstopdf-base.sty" 1480098836 12095 5337833c991d80788a43d3ce26bd1c46 ""
  "/usr/share/texlive/texmf-dist/tex/latex/oberdiek/grfext.sty" 1480098836 7075 2fe3d848bba95f139de11ded085e74aa ""
  "/usr/share/texlive/texmf-dist/tex/latex/oberdiek/hypcap.sty" 1480098836 3720 63669daeb0b67d5fbec899824e2f1491 ""
  "/usr/share/texlive/texmf-dist/tex/latex/oberdiek/kvoptions.sty" 1480098836 22417 1d9df1eb66848aa31b18a593099cf45c ""
  "/usr/share/texlive/texmf-dist/tex/latex/oberdiek/rerunfilecheck.sty" 1480098836 9581 023642318cef9f4677efe364de1e2a27 ""
  "/usr/share/texlive/texmf-dist/tex/latex/oberdiek/zref-abspage.sty" 1480098836 2153 d19aab1852eaa8dc344880608fac789e ""
  "/usr/share/texlive/texmf-dist/tex/latex/oberdiek/zref-base.sty" 1480098836 20510 c85fce26ec1b831d7c2882604a05e777 ""
  "/usr/share/texlive/texmf-dist/tex/latex/parskip/parskip.sty" 1480098836 2763 02a40cc5a32805c41d919cfbdba7e99a ""
  "/usr/share/texlive/texmf-dist/tex/latex/pgf/basiclayer/pgf.sty" 1480098837 1197 8a80cdde14696a9198f1793a55dcf332 ""
  "/usr/share/texlive/texmf-dist/tex/latex/pgf/basiclayer/pgfcore.sty" 1480098837 410 5bf12ea7330e5f12c445332a4fe9a263 ""
  "/usr/share/texlive/texmf-dist/tex/latex/pgf/compatibility/pgfcomp-version-0-65.sty" 1480098837 21115 facf03b7dbe5ea2f5f1dce1ac84b5d05 ""
  "/usr/share/texlive/texmf-dist/tex/latex/pgf/compatibility/pgfcomp-version-1-18.sty" 1480098837 1091 d9163d29def82ee90370c8a63667742c ""
  "/usr/share/texlive/texmf-dist/tex/latex/pgf/frontendlayer/tikz.sty" 1480098837 339 592cf35cba3d400082b8a9a5d0199d70 ""
  "/usr/share/texlive/texmf-dist/tex/latex/pgf/math/pgfmath.sty" 1480098837 306 0796eafca5e159e6ec2167a6d22d81b1 ""
  "/usr/share/texlive/texmf-dist/tex/latex/pgf/systemlayer/pgfsys.sty" 1480098837 443 0b2e781830192df35c0fd357cf13e26e ""
  "/usr/share/texlive/texmf-dist/tex/latex/pgf/utilities/pgffor.sty" 1480098837 348 8927fde343487e003b01a4c2ca34073b ""
  "/usr/share/texlive/texmf-dist/tex/latex/pgf/utilities/pgfkeys.sty" 1480098837 274 4cad6e665cc93ac2ac979039a94fa1e1 ""
  "/usr/share/texlive/texmf-dist/tex/latex/pgf/utilities/pgfrcs.sty" 1480098837 325 2bcd023400636339210573e2b3ee298b ""
  "/usr/share/texlive/texmf-dist/tex/latex/psnfss/t1pcr.fd" 1480098837 798 d5895e9edc628f2be019beb2c0ec66df ""
  "/usr/share/texlive/texmf-dist/tex/latex/psnfss/t1phv.fd" 1480098837 1488 9a55ac1cde6b4798a7f56844bb75a553 ""
  "/usr/share/texlive/texmf-dist/tex/latex/psnfss/t1ptm.fd" 1480098837 774 61d7da1e9f9e74989b196d147e623736 ""
  "/usr/share/texlive/texmf-dist/tex/latex/psnfss/times.sty" 1480098837 857 6c716f26c5eadfb81029fcd6ce2d45e6 ""
  "/usr/share/texlive/texmf-dist/tex/latex/tabulary/tabulary.sty" 1480098840 13791 8c83287d79183c3bf58fd70871e8a70b ""
  "/usr/share/texlive/texmf-dist/tex/latex/titlesec/titlesec.sty" 1480098841 37387 afa86533e532701faf233f3f592c61e0 ""
  "/usr/share/texlive/texmf-dist/tex/latex/tools/array.sty" 1485129666 12396 d41f82b039f900e95f351e54ae740f31 ""
  "/usr/share/texlive/texmf-dist/tex/latex/tools/longtable.sty" 1480098841 12083 80916157594a8e4354985aaefae4f367 ""
  "/usr/share/texlive/texmf-dist/tex/latex/upquote/upquote.sty" 1480098842 1048 517e01cde97c1c0baf72e69d43aa5a2e ""
  "/usr/share/texlive/texmf-dist/tex/latex/url/url.sty" 1480098842 12796 8edb7d69a20b857904dd0ea757c14ec9 ""
  "/usr/share/texlive/texmf-dist/tex/latex/varwidth/varwidth.sty" 1480098842 10894 d359a13923460b2a73d4312d613554c8 ""
  "/usr/share/texlive/texmf-dist/tex/latex/wrapfig/wrapfig.sty" 1480098843 26220 3701aebf80ccdef248c0c20dd062fea9 ""
  "/usr/share/texlive/texmf-dist/tex/latex/xcolor/xcolor.sty" 1480098843 55589 34128738f682d033422ca125f82e5d62 ""
  "/usr/share/texlive/texmf-dist/tex/latex/xkeyval/xkeyval.sty" 1480098843 4962 9c1069474ff71dbc47d5006555e352d3 ""
  "/usr/share/texlive/texmf-dist/web2c/texmf.cnf" 1503024366 32036 8f10cb8f6ef259fb5791f09c065d3d13 ""
  "/usr/share/texmf/web2c/texmf.cnf" 1503024366 32036 8f10cb8f6ef259fb5791f09c065d3d13 ""
  "/var/lib/texmf/fonts/map/pdftex/updmap/pdftex.map" 1512407875 2377213 8bc19c9e6d8db8e1c35694d1be199981 ""
  "/var/lib/texmf/web2c/pdftex/pdflatex.fmt" 1512407892 4126558 908e96a8d777cb6acc5ce1a387dc838e ""
  "SDD.aux" 1541751828 3081 f5a50a2497da4ca3aea6be7e9108a636 ""
  "SDD.ind" 1541751758 0 d41d8cd98f00b204e9800998ecf8427e "makeindex SDD.idx"
  "SDD.out" 1541751828 834 ed969ba2df2d0c47eec5496a347a0076 ""
  "SDD.tex" 1541751823 9851 27dea615117ee47018de22d468ae952c ""
  "SDD.toc" 1541751828 465 6192e6307a22fa3132280c442058e6dd ""
  "footnotehyper-sphinx.sty" 1541751758 8841 e18cbb7bca599a223414f9b8a156abee ""
  "ispahan.jpg" 1541751758 255454 68cd36059ef12535fa468e1bad3518df ""
  "qc-diffraction.jpg" 1541751758 91330 9103125e311ed416d9b61b0788a75c36 ""
  "sphinx.sty" 1541751758 62670 74cadfc8799b8ec9c0014b7f476b628d ""
  "sphinxhighlight.sty" 1541751823 8137 38a433148fcb7611515a989ff1750dd5 ""
  "sphinxmanual.cls" 1541751758 3589 0b0aac49c6f36925cf5f9d524a75a978 ""
  "sphinxmulticell.sty" 1541751758 14618 0defbdc8536ad2e67f1eac6a1431bc55 ""
  (generated)
  "SDD.pdf"
  "SDD.out"
  "SDD.toc"
  "SDD.idx"
  "SDD.log"
  "SDD.aux"
