\select@language {french}
\contentsline {chapter}{\numberline {1}TD1}{1}{chapter.1}
\contentsline {section}{\numberline {I.}Petites recherches dans le man}{1}{section.1.1}
\contentsline {chapter}{\numberline {2}TP1}{3}{chapter.2}
\contentsline {section}{\numberline {I.}Encore des recherches dans le man}{3}{section.2.1}
\contentsline {chapter}{\numberline {3}Mot de Fibonacci}{5}{chapter.3}
\contentsline {chapter}{\numberline {4}Indices and tables}{9}{chapter.4}
